^C:\PERSONAL\STUDY\PROJECTS\STRESSSOLVERMETIS\FORMATPROVIDERS\RESPROVIDER\ABSTRACTPROVIDERREZR.CPP|C:\PERSONAL\STUDY\PROJECTS\STRESSSOLVERMETIS\FORMATPROVIDERS\RESPROVIDER\BUFFER.CPP|C:\PERSONAL\STUDY\PROJECTS\STRESSSOLVERMETIS\FORMATPROVIDERS\RESPROVIDER\FILESTREAM.CPP|C:\PERSONAL\STUDY\PROJECTS\STRESSSOLVERMETIS\FORMATPROVIDERS\RESPROVIDER\MECHANICALOBJECTS.CPP|C:\PERSONAL\STUDY\PROJECTS\STRESSSOLVERMETIS\FORMATPROVIDERS\RESPROVIDER\OLDADDRESSES.CPP|C:\PERSONAL\STUDY\PROJECTS\STRESSSOLVERMETIS\FORMATPROVIDERS\RESPROVIDER\PROVIDERMPR.CPP|C:\PERSONAL\STUDY\PROJECTS\STRESSSOLVERMETIS\FORMATPROVIDERS\RESPROVIDER\PROVIDERREZR.CPP|C:\PERSONAL\STUDY\PROJECTS\STRESSSOLVERMETIS\FORMATPROVIDERS\RESPROVIDER\RESULTSFACTORY.CPP|C:\PERSONAL\STUDY\PROJECTS\STRESSSOLVERMETIS\FORMATPROVIDERS\RESPROVIDER\RESULTSRAWREADER.CPP|C:\PERSONAL\STUDY\PROJECTS\STRESSSOLVERMETIS\FORMATPROVIDERS\RESPROVIDER\RESULTSREADER.CPP|C:\PERSONAL\STUDY\PROJECTS\STRESSSOLVERMETIS\FORMATPROVIDERS\RESPROVIDER\RESULTSWRITER.CPP
C:\PERSONAL\STUDY\PROJECTS\STRESSSOLVERMETIS\_DEBUGDLL\OBJ64\PROVIDER_RES\PROVIDER_RES.PDB
C:\PERSONAL\STUDY\PROJECTS\STRESSSOLVERMETIS\_DEBUGDLL\OBJ64\PROVIDER_RES\RESULTSWRITER.OBJ
C:\PERSONAL\STUDY\PROJECTS\STRESSSOLVERMETIS\_DEBUGDLL\OBJ64\PROVIDER_RES\RESULTSREADER.OBJ
C:\PERSONAL\STUDY\PROJECTS\STRESSSOLVERMETIS\_DEBUGDLL\OBJ64\PROVIDER_RES\RESULTSRAWREADER.OBJ
C:\PERSONAL\STUDY\PROJECTS\STRESSSOLVERMETIS\_DEBUGDLL\OBJ64\PROVIDER_RES\RESULTSFACTORY.OBJ
C:\PERSONAL\STUDY\PROJECTS\STRESSSOLVERMETIS\_DEBUGDLL\OBJ64\PROVIDER_RES\PROVIDERREZR.OBJ
C:\PERSONAL\STUDY\PROJECTS\STRESSSOLVERMETIS\_DEBUGDLL\OBJ64\PROVIDER_RES\PROVIDERMPR.OBJ
C:\PERSONAL\STUDY\PROJECTS\STRESSSOLVERMETIS\_DEBUGDLL\OBJ64\PROVIDER_RES\OLDADDRESSES.OBJ
C:\PERSONAL\STUDY\PROJECTS\STRESSSOLVERMETIS\_DEBUGDLL\OBJ64\PROVIDER_RES\MECHANICALOBJECTS.OBJ
C:\PERSONAL\STUDY\PROJECTS\STRESSSOLVERMETIS\_DEBUGDLL\OBJ64\PROVIDER_RES\FILESTREAM.OBJ
C:\PERSONAL\STUDY\PROJECTS\STRESSSOLVERMETIS\_DEBUGDLL\OBJ64\PROVIDER_RES\BUFFER.OBJ
C:\PERSONAL\STUDY\PROJECTS\STRESSSOLVERMETIS\_DEBUGDLL\OBJ64\PROVIDER_RES\ABSTRACTPROVIDERREZR.OBJ
^C:\PERSONAL\STUDY\PROJECTS\STRESSSOLVERMETIS\FORMATPROVIDERS\RESPROVIDER\ABSTRACTPROVIDERREZR.CPP
C:\PERSONAL\STUDY\PROJECTS\STRESSSOLVERMETIS\_DEBUGDLL\OBJ64\PROVIDER_RES\PROVIDER_RES.PDB
^C:\PERSONAL\STUDY\PROJECTS\STRESSSOLVERMETIS\FORMATPROVIDERS\RESPROVIDER\BUFFER.CPP
C:\PERSONAL\STUDY\PROJECTS\STRESSSOLVERMETIS\_DEBUGDLL\OBJ64\PROVIDER_RES\PROVIDER_RES.PDB
^C:\PERSONAL\STUDY\PROJECTS\STRESSSOLVERMETIS\FORMATPROVIDERS\RESPROVIDER\FILESTREAM.CPP
C:\PERSONAL\STUDY\PROJECTS\STRESSSOLVERMETIS\_DEBUGDLL\OBJ64\PROVIDER_RES\PROVIDER_RES.PDB
^C:\PERSONAL\STUDY\PROJECTS\STRESSSOLVERMETIS\FORMATPROVIDERS\RESPROVIDER\MECHANICALOBJECTS.CPP
C:\PERSONAL\STUDY\PROJECTS\STRESSSOLVERMETIS\_DEBUGDLL\OBJ64\PROVIDER_RES\PROVIDER_RES.PDB
^C:\PERSONAL\STUDY\PROJECTS\STRESSSOLVERMETIS\FORMATPROVIDERS\RESPROVIDER\OLDADDRESSES.CPP
C:\PERSONAL\STUDY\PROJECTS\STRESSSOLVERMETIS\_DEBUGDLL\OBJ64\PROVIDER_RES\PROVIDER_RES.PDB
^C:\PERSONAL\STUDY\PROJECTS\STRESSSOLVERMETIS\FORMATPROVIDERS\RESPROVIDER\PROVIDERMPR.CPP
C:\PERSONAL\STUDY\PROJECTS\STRESSSOLVERMETIS\_DEBUGDLL\OBJ64\PROVIDER_RES\PROVIDER_RES.PDB
^C:\PERSONAL\STUDY\PROJECTS\STRESSSOLVERMETIS\FORMATPROVIDERS\RESPROVIDER\PROVIDERREZR.CPP
C:\PERSONAL\STUDY\PROJECTS\STRESSSOLVERMETIS\_DEBUGDLL\OBJ64\PROVIDER_RES\PROVIDER_RES.PDB
^C:\PERSONAL\STUDY\PROJECTS\STRESSSOLVERMETIS\FORMATPROVIDERS\RESPROVIDER\RESULTSFACTORY.CPP
C:\PERSONAL\STUDY\PROJECTS\STRESSSOLVERMETIS\_DEBUGDLL\OBJ64\PROVIDER_RES\PROVIDER_RES.PDB
^C:\PERSONAL\STUDY\PROJECTS\STRESSSOLVERMETIS\FORMATPROVIDERS\RESPROVIDER\RESULTSRAWREADER.CPP
C:\PERSONAL\STUDY\PROJECTS\STRESSSOLVERMETIS\_DEBUGDLL\OBJ64\PROVIDER_RES\PROVIDER_RES.PDB
^C:\PERSONAL\STUDY\PROJECTS\STRESSSOLVERMETIS\FORMATPROVIDERS\RESPROVIDER\RESULTSREADER.CPP
C:\PERSONAL\STUDY\PROJECTS\STRESSSOLVERMETIS\_DEBUGDLL\OBJ64\PROVIDER_RES\PROVIDER_RES.PDB
^C:\PERSONAL\STUDY\PROJECTS\STRESSSOLVERMETIS\FORMATPROVIDERS\RESPROVIDER\RESULTSWRITER.CPP
C:\PERSONAL\STUDY\PROJECTS\STRESSSOLVERMETIS\_DEBUGDLL\OBJ64\PROVIDER_RES\PROVIDER_RES.PDB
