^C:\PERSONAL\STUDY\PROJECTS\STRESSSOLVERMETIS\ADDITIONALMODULES\FMATH\MATHFUNCTIONS.CPP
C:\PERSONAL\STUDY\PROJECTS\STRESSSOLVERMETIS\ADDITIONALMODULES\FMATH\MATHFUNCTIONS.H
C:\PERSONAL\STUDY\PROJECTS\STRESSSOLVERMETIS\ADDITIONALMODULES\MACROS\COMPILERFLAGS.H
C:\PROGRAM FILES (X86)\MICROSOFT VISUAL STUDIO\2017\COMMUNITY\VC\TOOLS\MSVC\14.14.26428\INCLUDE\CMATH
C:\PROGRAM FILES (X86)\MICROSOFT VISUAL STUDIO\2017\COMMUNITY\VC\TOOLS\MSVC\14.14.26428\INCLUDE\CSTDLIB
C:\PROGRAM FILES (X86)\MICROSOFT VISUAL STUDIO\2017\COMMUNITY\VC\TOOLS\MSVC\14.14.26428\INCLUDE\YVALS.H
C:\PROGRAM FILES (X86)\MICROSOFT VISUAL STUDIO\2017\COMMUNITY\VC\TOOLS\MSVC\14.14.26428\INCLUDE\XKEYCHECK.H
C:\PROGRAM FILES (X86)\MICROSOFT VISUAL STUDIO\2017\COMMUNITY\VC\TOOLS\MSVC\14.14.26428\INCLUDE\CRTDEFS.H
C:\PROGRAM FILES (X86)\MICROSOFT VISUAL STUDIO\2017\COMMUNITY\VC\TOOLS\MSVC\14.14.26428\INCLUDE\VCRUNTIME.H
C:\PROGRAM FILES (X86)\MICROSOFT VISUAL STUDIO\2017\COMMUNITY\VC\TOOLS\MSVC\14.14.26428\INCLUDE\SAL.H
C:\PROGRAM FILES (X86)\MICROSOFT VISUAL STUDIO\2017\COMMUNITY\VC\TOOLS\MSVC\14.14.26428\INCLUDE\CONCURRENCYSAL.H
C:\PROGRAM FILES (X86)\MICROSOFT VISUAL STUDIO\2017\COMMUNITY\VC\TOOLS\MSVC\14.14.26428\INCLUDE\VADEFS.H
C:\PROGRAM FILES (X86)\WINDOWS KITS\10\INCLUDE\10.0.17134.0\UCRT\CORECRT.H
C:\PROGRAM FILES (X86)\MICROSOFT VISUAL STUDIO\2017\COMMUNITY\VC\TOOLS\MSVC\14.14.26428\INCLUDE\USE_ANSI.H
C:\PROGRAM FILES (X86)\WINDOWS KITS\10\INCLUDE\10.0.17134.0\UCRT\STDLIB.H
C:\PROGRAM FILES (X86)\WINDOWS KITS\10\INCLUDE\10.0.17134.0\UCRT\CORECRT_MALLOC.H
C:\PROGRAM FILES (X86)\WINDOWS KITS\10\INCLUDE\10.0.17134.0\UCRT\CORECRT_SEARCH.H
C:\PROGRAM FILES (X86)\WINDOWS KITS\10\INCLUDE\10.0.17134.0\UCRT\STDDEF.H
C:\PROGRAM FILES (X86)\WINDOWS KITS\10\INCLUDE\10.0.17134.0\UCRT\CORECRT_WSTDLIB.H
C:\PROGRAM FILES (X86)\MICROSOFT VISUAL STUDIO\2017\COMMUNITY\VC\TOOLS\MSVC\14.14.26428\INCLUDE\LIMITS.H
C:\PROGRAM FILES (X86)\WINDOWS KITS\10\INCLUDE\10.0.17134.0\UCRT\MATH.H
C:\PROGRAM FILES (X86)\WINDOWS KITS\10\INCLUDE\10.0.17134.0\UCRT\CORECRT_MATH.H
C:\PROGRAM FILES (X86)\MICROSOFT VISUAL STUDIO\2017\COMMUNITY\VC\TOOLS\MSVC\14.14.26428\INCLUDE\XTGMATH.H
C:\PROGRAM FILES (X86)\MICROSOFT VISUAL STUDIO\2017\COMMUNITY\VC\TOOLS\MSVC\14.14.26428\INCLUDE\XTR1COMMON
^C:\PERSONAL\STUDY\PROJECTS\STRESSSOLVERMETIS\ADDITIONALMODULES\FMATH\MATRIX3X3.CPP
C:\PERSONAL\STUDY\PROJECTS\STRESSSOLVERMETIS\ADDITIONALMODULES\FMATH\MATRIX3X3.H
C:\PERSONAL\STUDY\PROJECTS\STRESSSOLVERMETIS\ADDITIONALMODULES\FMATH\VECTOR3.H
C:\PERSONAL\STUDY\PROJECTS\STRESSSOLVERMETIS\ADDITIONALMODULES\FMATH\VECTOR3DATA.H
C:\PERSONAL\STUDY\PROJECTS\STRESSSOLVERMETIS\ADDITIONALMODULES\FMATH\STRIDES.H
C:\PERSONAL\STUDY\PROJECTS\STRESSSOLVERMETIS\ADDITIONALMODULES\FMATH\VECTOR3REF.H
C:\PROGRAM FILES (X86)\MICROSOFT VISUAL STUDIO\2017\COMMUNITY\VC\TOOLS\MSVC\14.14.26428\INCLUDE\CMATH
C:\PROGRAM FILES (X86)\MICROSOFT VISUAL STUDIO\2017\COMMUNITY\VC\TOOLS\MSVC\14.14.26428\INCLUDE\CSTDLIB
C:\PROGRAM FILES (X86)\MICROSOFT VISUAL STUDIO\2017\COMMUNITY\VC\TOOLS\MSVC\14.14.26428\INCLUDE\YVALS.H
C:\PROGRAM FILES (X86)\MICROSOFT VISUAL STUDIO\2017\COMMUNITY\VC\TOOLS\MSVC\14.14.26428\INCLUDE\XKEYCHECK.H
C:\PROGRAM FILES (X86)\MICROSOFT VISUAL STUDIO\2017\COMMUNITY\VC\TOOLS\MSVC\14.14.26428\INCLUDE\CRTDEFS.H
C:\PROGRAM FILES (X86)\MICROSOFT VISUAL STUDIO\2017\COMMUNITY\VC\TOOLS\MSVC\14.14.26428\INCLUDE\VCRUNTIME.H
C:\PROGRAM FILES (X86)\MICROSOFT VISUAL STUDIO\2017\COMMUNITY\VC\TOOLS\MSVC\14.14.26428\INCLUDE\SAL.H
C:\PROGRAM FILES (X86)\MICROSOFT VISUAL STUDIO\2017\COMMUNITY\VC\TOOLS\MSVC\14.14.26428\INCLUDE\CONCURRENCYSAL.H
C:\PROGRAM FILES (X86)\MICROSOFT VISUAL STUDIO\2017\COMMUNITY\VC\TOOLS\MSVC\14.14.26428\INCLUDE\VADEFS.H
C:\PROGRAM FILES (X86)\WINDOWS KITS\10\INCLUDE\10.0.17134.0\UCRT\CORECRT.H
C:\PROGRAM FILES (X86)\MICROSOFT VISUAL STUDIO\2017\COMMUNITY\VC\TOOLS\MSVC\14.14.26428\INCLUDE\USE_ANSI.H
C:\PROGRAM FILES (X86)\WINDOWS KITS\10\INCLUDE\10.0.17134.0\UCRT\STDLIB.H
C:\PROGRAM FILES (X86)\WINDOWS KITS\10\INCLUDE\10.0.17134.0\UCRT\CORECRT_MALLOC.H
C:\PROGRAM FILES (X86)\WINDOWS KITS\10\INCLUDE\10.0.17134.0\UCRT\CORECRT_SEARCH.H
C:\PROGRAM FILES (X86)\WINDOWS KITS\10\INCLUDE\10.0.17134.0\UCRT\STDDEF.H
C:\PROGRAM FILES (X86)\WINDOWS KITS\10\INCLUDE\10.0.17134.0\UCRT\CORECRT_WSTDLIB.H
C:\PROGRAM FILES (X86)\MICROSOFT VISUAL STUDIO\2017\COMMUNITY\VC\TOOLS\MSVC\14.14.26428\INCLUDE\LIMITS.H
C:\PROGRAM FILES (X86)\WINDOWS KITS\10\INCLUDE\10.0.17134.0\UCRT\MATH.H
C:\PROGRAM FILES (X86)\WINDOWS KITS\10\INCLUDE\10.0.17134.0\UCRT\CORECRT_MATH.H
C:\PROGRAM FILES (X86)\MICROSOFT VISUAL STUDIO\2017\COMMUNITY\VC\TOOLS\MSVC\14.14.26428\INCLUDE\XTGMATH.H
C:\PROGRAM FILES (X86)\MICROSOFT VISUAL STUDIO\2017\COMMUNITY\VC\TOOLS\MSVC\14.14.26428\INCLUDE\XTR1COMMON
C:\PROGRAM FILES (X86)\MICROSOFT VISUAL STUDIO\2017\COMMUNITY\VC\TOOLS\MSVC\14.14.26428\INCLUDE\ALGORITHM
C:\PROGRAM FILES (X86)\MICROSOFT VISUAL STUDIO\2017\COMMUNITY\VC\TOOLS\MSVC\14.14.26428\INCLUDE\XMEMORY
C:\PROGRAM FILES (X86)\MICROSOFT VISUAL STUDIO\2017\COMMUNITY\VC\TOOLS\MSVC\14.14.26428\INCLUDE\XMEMORY0
C:\PROGRAM FILES (X86)\MICROSOFT VISUAL STUDIO\2017\COMMUNITY\VC\TOOLS\MSVC\14.14.26428\INCLUDE\CSTDINT
C:\PROGRAM FILES (X86)\MICROSOFT VISUAL STUDIO\2017\COMMUNITY\VC\TOOLS\MSVC\14.14.26428\INCLUDE\STDINT.H
C:\PROGRAM FILES (X86)\MICROSOFT VISUAL STUDIO\2017\COMMUNITY\VC\TOOLS\MSVC\14.14.26428\INCLUDE\LIMITS
C:\PROGRAM FILES (X86)\MICROSOFT VISUAL STUDIO\2017\COMMUNITY\VC\TOOLS\MSVC\14.14.26428\INCLUDE\YMATH.H
C:\PROGRAM FILES (X86)\MICROSOFT VISUAL STUDIO\2017\COMMUNITY\VC\TOOLS\MSVC\14.14.26428\INCLUDE\CFLOAT
C:\PROGRAM FILES (X86)\WINDOWS KITS\10\INCLUDE\10.0.17134.0\UCRT\FLOAT.H
C:\PROGRAM FILES (X86)\MICROSOFT VISUAL STUDIO\2017\COMMUNITY\VC\TOOLS\MSVC\14.14.26428\INCLUDE\CLIMITS
C:\PROGRAM FILES (X86)\MICROSOFT VISUAL STUDIO\2017\COMMUNITY\VC\TOOLS\MSVC\14.14.26428\INCLUDE\CWCHAR
C:\PROGRAM FILES (X86)\WINDOWS KITS\10\INCLUDE\10.0.17134.0\UCRT\WCHAR.H
C:\PROGRAM FILES (X86)\WINDOWS KITS\10\INCLUDE\10.0.17134.0\UCRT\CORECRT_MEMCPY_S.H
C:\PROGRAM FILES (X86)\WINDOWS KITS\10\INCLUDE\10.0.17134.0\UCRT\ERRNO.H
C:\PROGRAM FILES (X86)\MICROSOFT VISUAL STUDIO\2017\COMMUNITY\VC\TOOLS\MSVC\14.14.26428\INCLUDE\VCRUNTIME_STRING.H
C:\PROGRAM FILES (X86)\WINDOWS KITS\10\INCLUDE\10.0.17134.0\UCRT\CORECRT_WCONIO.H
C:\PROGRAM FILES (X86)\WINDOWS KITS\10\INCLUDE\10.0.17134.0\UCRT\CORECRT_STDIO_CONFIG.H
C:\PROGRAM FILES (X86)\WINDOWS KITS\10\INCLUDE\10.0.17134.0\UCRT\CORECRT_WCTYPE.H
C:\PROGRAM FILES (X86)\WINDOWS KITS\10\INCLUDE\10.0.17134.0\UCRT\CORECRT_WDIRECT.H
C:\PROGRAM FILES (X86)\WINDOWS KITS\10\INCLUDE\10.0.17134.0\UCRT\CORECRT_WIO.H
C:\PROGRAM FILES (X86)\WINDOWS KITS\10\INCLUDE\10.0.17134.0\UCRT\CORECRT_SHARE.H
C:\PROGRAM FILES (X86)\WINDOWS KITS\10\INCLUDE\10.0.17134.0\UCRT\CORECRT_WPROCESS.H
C:\PROGRAM FILES (X86)\WINDOWS KITS\10\INCLUDE\10.0.17134.0\UCRT\CORECRT_WSTDIO.H
C:\PROGRAM FILES (X86)\WINDOWS KITS\10\INCLUDE\10.0.17134.0\UCRT\CORECRT_WSTRING.H
C:\PROGRAM FILES (X86)\WINDOWS KITS\10\INCLUDE\10.0.17134.0\UCRT\CORECRT_WTIME.H
C:\PROGRAM FILES (X86)\WINDOWS KITS\10\INCLUDE\10.0.17134.0\UCRT\SYS\STAT.H
C:\PROGRAM FILES (X86)\WINDOWS KITS\10\INCLUDE\10.0.17134.0\UCRT\SYS\TYPES.H
C:\PROGRAM FILES (X86)\MICROSOFT VISUAL STUDIO\2017\COMMUNITY\VC\TOOLS\MSVC\14.14.26428\INCLUDE\XSTDDEF
C:\PROGRAM FILES (X86)\MICROSOFT VISUAL STUDIO\2017\COMMUNITY\VC\TOOLS\MSVC\14.14.26428\INCLUDE\CSTDDEF
C:\PROGRAM FILES (X86)\MICROSOFT VISUAL STUDIO\2017\COMMUNITY\VC\TOOLS\MSVC\14.14.26428\INCLUDE\INITIALIZER_LIST
C:\PROGRAM FILES (X86)\MICROSOFT VISUAL STUDIO\2017\COMMUNITY\VC\TOOLS\MSVC\14.14.26428\INCLUDE\NEW
C:\PROGRAM FILES (X86)\MICROSOFT VISUAL STUDIO\2017\COMMUNITY\VC\TOOLS\MSVC\14.14.26428\INCLUDE\EXCEPTION
C:\PROGRAM FILES (X86)\MICROSOFT VISUAL STUDIO\2017\COMMUNITY\VC\TOOLS\MSVC\14.14.26428\INCLUDE\TYPE_TRAITS
C:\PROGRAM FILES (X86)\WINDOWS KITS\10\INCLUDE\10.0.17134.0\UCRT\MALLOC.H
C:\PROGRAM FILES (X86)\MICROSOFT VISUAL STUDIO\2017\COMMUNITY\VC\TOOLS\MSVC\14.14.26428\INCLUDE\VCRUNTIME_EXCEPTION.H
C:\PROGRAM FILES (X86)\MICROSOFT VISUAL STUDIO\2017\COMMUNITY\VC\TOOLS\MSVC\14.14.26428\INCLUDE\EH.H
C:\PROGRAM FILES (X86)\WINDOWS KITS\10\INCLUDE\10.0.17134.0\UCRT\CORECRT_TERMINATE.H
C:\PROGRAM FILES (X86)\MICROSOFT VISUAL STUDIO\2017\COMMUNITY\VC\TOOLS\MSVC\14.14.26428\INCLUDE\VCRUNTIME_NEW.H
C:\PROGRAM FILES (X86)\MICROSOFT VISUAL STUDIO\2017\COMMUNITY\VC\TOOLS\MSVC\14.14.26428\INCLUDE\XUTILITY
C:\PROGRAM FILES (X86)\MICROSOFT VISUAL STUDIO\2017\COMMUNITY\VC\TOOLS\MSVC\14.14.26428\INCLUDE\UTILITY
C:\PROGRAM FILES (X86)\MICROSOFT VISUAL STUDIO\2017\COMMUNITY\VC\TOOLS\MSVC\14.14.26428\INCLUDE\IOSFWD
C:\PROGRAM FILES (X86)\MICROSOFT VISUAL STUDIO\2017\COMMUNITY\VC\TOOLS\MSVC\14.14.26428\INCLUDE\CSTDIO
C:\PROGRAM FILES (X86)\WINDOWS KITS\10\INCLUDE\10.0.17134.0\UCRT\STDIO.H
C:\PROGRAM FILES (X86)\MICROSOFT VISUAL STUDIO\2017\COMMUNITY\VC\TOOLS\MSVC\14.14.26428\INCLUDE\CSTRING
C:\PROGRAM FILES (X86)\WINDOWS KITS\10\INCLUDE\10.0.17134.0\UCRT\STRING.H
C:\PROGRAM FILES (X86)\WINDOWS KITS\10\INCLUDE\10.0.17134.0\UCRT\CORECRT_MEMORY.H
C:\PROGRAM FILES (X86)\WINDOWS KITS\10\INCLUDE\10.0.17134.0\UCRT\CRTDBG.H
C:\PROGRAM FILES (X86)\MICROSOFT VISUAL STUDIO\2017\COMMUNITY\VC\TOOLS\MSVC\14.14.26428\INCLUDE\VCRUNTIME_NEW_DEBUG.H
C:\PROGRAM FILES (X86)\MICROSOFT VISUAL STUDIO\2017\COMMUNITY\VC\TOOLS\MSVC\14.14.26428\INCLUDE\XATOMIC0.H
C:\PROGRAM FILES (X86)\MICROSOFT VISUAL STUDIO\2017\COMMUNITY\VC\TOOLS\MSVC\14.14.26428\INCLUDE\INTRIN0.H
^C:\PERSONAL\STUDY\PROJECTS\STRESSSOLVERMETIS\ADDITIONALMODULES\FMATH\MATRIX3X4.CPP
C:\PERSONAL\STUDY\PROJECTS\STRESSSOLVERMETIS\ADDITIONALMODULES\FMATH\MATRIX3X4.H
C:\PERSONAL\STUDY\PROJECTS\STRESSSOLVERMETIS\ADDITIONALMODULES\FMATH\VECTOR3.H
C:\PERSONAL\STUDY\PROJECTS\STRESSSOLVERMETIS\ADDITIONALMODULES\FMATH\VECTOR3DATA.H
C:\PERSONAL\STUDY\PROJECTS\STRESSSOLVERMETIS\ADDITIONALMODULES\FMATH\STRIDES.H
C:\PERSONAL\STUDY\PROJECTS\STRESSSOLVERMETIS\ADDITIONALMODULES\FMATH\VECTOR3REF.H
C:\PROGRAM FILES (X86)\MICROSOFT VISUAL STUDIO\2017\COMMUNITY\VC\TOOLS\MSVC\14.14.26428\INCLUDE\CMATH
C:\PROGRAM FILES (X86)\MICROSOFT VISUAL STUDIO\2017\COMMUNITY\VC\TOOLS\MSVC\14.14.26428\INCLUDE\CSTDLIB
C:\PROGRAM FILES (X86)\MICROSOFT VISUAL STUDIO\2017\COMMUNITY\VC\TOOLS\MSVC\14.14.26428\INCLUDE\YVALS.H
C:\PROGRAM FILES (X86)\MICROSOFT VISUAL STUDIO\2017\COMMUNITY\VC\TOOLS\MSVC\14.14.26428\INCLUDE\XKEYCHECK.H
C:\PROGRAM FILES (X86)\MICROSOFT VISUAL STUDIO\2017\COMMUNITY\VC\TOOLS\MSVC\14.14.26428\INCLUDE\CRTDEFS.H
C:\PROGRAM FILES (X86)\MICROSOFT VISUAL STUDIO\2017\COMMUNITY\VC\TOOLS\MSVC\14.14.26428\INCLUDE\VCRUNTIME.H
C:\PROGRAM FILES (X86)\MICROSOFT VISUAL STUDIO\2017\COMMUNITY\VC\TOOLS\MSVC\14.14.26428\INCLUDE\SAL.H
C:\PROGRAM FILES (X86)\MICROSOFT VISUAL STUDIO\2017\COMMUNITY\VC\TOOLS\MSVC\14.14.26428\INCLUDE\CONCURRENCYSAL.H
C:\PROGRAM FILES (X86)\MICROSOFT VISUAL STUDIO\2017\COMMUNITY\VC\TOOLS\MSVC\14.14.26428\INCLUDE\VADEFS.H
C:\PROGRAM FILES (X86)\WINDOWS KITS\10\INCLUDE\10.0.17134.0\UCRT\CORECRT.H
C:\PROGRAM FILES (X86)\MICROSOFT VISUAL STUDIO\2017\COMMUNITY\VC\TOOLS\MSVC\14.14.26428\INCLUDE\USE_ANSI.H
C:\PROGRAM FILES (X86)\WINDOWS KITS\10\INCLUDE\10.0.17134.0\UCRT\STDLIB.H
C:\PROGRAM FILES (X86)\WINDOWS KITS\10\INCLUDE\10.0.17134.0\UCRT\CORECRT_MALLOC.H
C:\PROGRAM FILES (X86)\WINDOWS KITS\10\INCLUDE\10.0.17134.0\UCRT\CORECRT_SEARCH.H
C:\PROGRAM FILES (X86)\WINDOWS KITS\10\INCLUDE\10.0.17134.0\UCRT\STDDEF.H
C:\PROGRAM FILES (X86)\WINDOWS KITS\10\INCLUDE\10.0.17134.0\UCRT\CORECRT_WSTDLIB.H
C:\PROGRAM FILES (X86)\MICROSOFT VISUAL STUDIO\2017\COMMUNITY\VC\TOOLS\MSVC\14.14.26428\INCLUDE\LIMITS.H
C:\PROGRAM FILES (X86)\WINDOWS KITS\10\INCLUDE\10.0.17134.0\UCRT\MATH.H
C:\PROGRAM FILES (X86)\WINDOWS KITS\10\INCLUDE\10.0.17134.0\UCRT\CORECRT_MATH.H
C:\PROGRAM FILES (X86)\MICROSOFT VISUAL STUDIO\2017\COMMUNITY\VC\TOOLS\MSVC\14.14.26428\INCLUDE\XTGMATH.H
C:\PROGRAM FILES (X86)\MICROSOFT VISUAL STUDIO\2017\COMMUNITY\VC\TOOLS\MSVC\14.14.26428\INCLUDE\XTR1COMMON
C:\PROGRAM FILES (X86)\MICROSOFT VISUAL STUDIO\2017\COMMUNITY\VC\TOOLS\MSVC\14.14.26428\INCLUDE\ALGORITHM
C:\PROGRAM FILES (X86)\MICROSOFT VISUAL STUDIO\2017\COMMUNITY\VC\TOOLS\MSVC\14.14.26428\INCLUDE\XMEMORY
C:\PROGRAM FILES (X86)\MICROSOFT VISUAL STUDIO\2017\COMMUNITY\VC\TOOLS\MSVC\14.14.26428\INCLUDE\XMEMORY0
C:\PROGRAM FILES (X86)\MICROSOFT VISUAL STUDIO\2017\COMMUNITY\VC\TOOLS\MSVC\14.14.26428\INCLUDE\CSTDINT
C:\PROGRAM FILES (X86)\MICROSOFT VISUAL STUDIO\2017\COMMUNITY\VC\TOOLS\MSVC\14.14.26428\INCLUDE\STDINT.H
C:\PROGRAM FILES (X86)\MICROSOFT VISUAL STUDIO\2017\COMMUNITY\VC\TOOLS\MSVC\14.14.26428\INCLUDE\LIMITS
C:\PROGRAM FILES (X86)\MICROSOFT VISUAL STUDIO\2017\COMMUNITY\VC\TOOLS\MSVC\14.14.26428\INCLUDE\YMATH.H
C:\PROGRAM FILES (X86)\MICROSOFT VISUAL STUDIO\2017\COMMUNITY\VC\TOOLS\MSVC\14.14.26428\INCLUDE\CFLOAT
C:\PROGRAM FILES (X86)\WINDOWS KITS\10\INCLUDE\10.0.17134.0\UCRT\FLOAT.H
C:\PROGRAM FILES (X86)\MICROSOFT VISUAL STUDIO\2017\COMMUNITY\VC\TOOLS\MSVC\14.14.26428\INCLUDE\CLIMITS
C:\PROGRAM FILES (X86)\MICROSOFT VISUAL STUDIO\2017\COMMUNITY\VC\TOOLS\MSVC\14.14.26428\INCLUDE\CWCHAR
C:\PROGRAM FILES (X86)\WINDOWS KITS\10\INCLUDE\10.0.17134.0\UCRT\WCHAR.H
C:\PROGRAM FILES (X86)\WINDOWS KITS\10\INCLUDE\10.0.17134.0\UCRT\CORECRT_MEMCPY_S.H
C:\PROGRAM FILES (X86)\WINDOWS KITS\10\INCLUDE\10.0.17134.0\UCRT\ERRNO.H
C:\PROGRAM FILES (X86)\MICROSOFT VISUAL STUDIO\2017\COMMUNITY\VC\TOOLS\MSVC\14.14.26428\INCLUDE\VCRUNTIME_STRING.H
C:\PROGRAM FILES (X86)\WINDOWS KITS\10\INCLUDE\10.0.17134.0\UCRT\CORECRT_WCONIO.H
C:\PROGRAM FILES (X86)\WINDOWS KITS\10\INCLUDE\10.0.17134.0\UCRT\CORECRT_STDIO_CONFIG.H
C:\PROGRAM FILES (X86)\WINDOWS KITS\10\INCLUDE\10.0.17134.0\UCRT\CORECRT_WCTYPE.H
C:\PROGRAM FILES (X86)\WINDOWS KITS\10\INCLUDE\10.0.17134.0\UCRT\CORECRT_WDIRECT.H
C:\PROGRAM FILES (X86)\WINDOWS KITS\10\INCLUDE\10.0.17134.0\UCRT\CORECRT_WIO.H
C:\PROGRAM FILES (X86)\WINDOWS KITS\10\INCLUDE\10.0.17134.0\UCRT\CORECRT_SHARE.H
C:\PROGRAM FILES (X86)\WINDOWS KITS\10\INCLUDE\10.0.17134.0\UCRT\CORECRT_WPROCESS.H
C:\PROGRAM FILES (X86)\WINDOWS KITS\10\INCLUDE\10.0.17134.0\UCRT\CORECRT_WSTDIO.H
C:\PROGRAM FILES (X86)\WINDOWS KITS\10\INCLUDE\10.0.17134.0\UCRT\CORECRT_WSTRING.H
C:\PROGRAM FILES (X86)\WINDOWS KITS\10\INCLUDE\10.0.17134.0\UCRT\CORECRT_WTIME.H
C:\PROGRAM FILES (X86)\WINDOWS KITS\10\INCLUDE\10.0.17134.0\UCRT\SYS\STAT.H
C:\PROGRAM FILES (X86)\WINDOWS KITS\10\INCLUDE\10.0.17134.0\UCRT\SYS\TYPES.H
C:\PROGRAM FILES (X86)\MICROSOFT VISUAL STUDIO\2017\COMMUNITY\VC\TOOLS\MSVC\14.14.26428\INCLUDE\XSTDDEF
C:\PROGRAM FILES (X86)\MICROSOFT VISUAL STUDIO\2017\COMMUNITY\VC\TOOLS\MSVC\14.14.26428\INCLUDE\CSTDDEF
C:\PROGRAM FILES (X86)\MICROSOFT VISUAL STUDIO\2017\COMMUNITY\VC\TOOLS\MSVC\14.14.26428\INCLUDE\INITIALIZER_LIST
C:\PROGRAM FILES (X86)\MICROSOFT VISUAL STUDIO\2017\COMMUNITY\VC\TOOLS\MSVC\14.14.26428\INCLUDE\NEW
C:\PROGRAM FILES (X86)\MICROSOFT VISUAL STUDIO\2017\COMMUNITY\VC\TOOLS\MSVC\14.14.26428\INCLUDE\EXCEPTION
C:\PROGRAM FILES (X86)\MICROSOFT VISUAL STUDIO\2017\COMMUNITY\VC\TOOLS\MSVC\14.14.26428\INCLUDE\TYPE_TRAITS
C:\PROGRAM FILES (X86)\WINDOWS KITS\10\INCLUDE\10.0.17134.0\UCRT\MALLOC.H
C:\PROGRAM FILES (X86)\MICROSOFT VISUAL STUDIO\2017\COMMUNITY\VC\TOOLS\MSVC\14.14.26428\INCLUDE\VCRUNTIME_EXCEPTION.H
C:\PROGRAM FILES (X86)\MICROSOFT VISUAL STUDIO\2017\COMMUNITY\VC\TOOLS\MSVC\14.14.26428\INCLUDE\EH.H
C:\PROGRAM FILES (X86)\WINDOWS KITS\10\INCLUDE\10.0.17134.0\UCRT\CORECRT_TERMINATE.H
C:\PROGRAM FILES (X86)\MICROSOFT VISUAL STUDIO\2017\COMMUNITY\VC\TOOLS\MSVC\14.14.26428\INCLUDE\VCRUNTIME_NEW.H
C:\PROGRAM FILES (X86)\MICROSOFT VISUAL STUDIO\2017\COMMUNITY\VC\TOOLS\MSVC\14.14.26428\INCLUDE\XUTILITY
C:\PROGRAM FILES (X86)\MICROSOFT VISUAL STUDIO\2017\COMMUNITY\VC\TOOLS\MSVC\14.14.26428\INCLUDE\UTILITY
C:\PROGRAM FILES (X86)\MICROSOFT VISUAL STUDIO\2017\COMMUNITY\VC\TOOLS\MSVC\14.14.26428\INCLUDE\IOSFWD
C:\PROGRAM FILES (X86)\MICROSOFT VISUAL STUDIO\2017\COMMUNITY\VC\TOOLS\MSVC\14.14.26428\INCLUDE\CSTDIO
C:\PROGRAM FILES (X86)\WINDOWS KITS\10\INCLUDE\10.0.17134.0\UCRT\STDIO.H
C:\PROGRAM FILES (X86)\MICROSOFT VISUAL STUDIO\2017\COMMUNITY\VC\TOOLS\MSVC\14.14.26428\INCLUDE\CSTRING
C:\PROGRAM FILES (X86)\WINDOWS KITS\10\INCLUDE\10.0.17134.0\UCRT\STRING.H
C:\PROGRAM FILES (X86)\WINDOWS KITS\10\INCLUDE\10.0.17134.0\UCRT\CORECRT_MEMORY.H
C:\PROGRAM FILES (X86)\WINDOWS KITS\10\INCLUDE\10.0.17134.0\UCRT\CRTDBG.H
C:\PROGRAM FILES (X86)\MICROSOFT VISUAL STUDIO\2017\COMMUNITY\VC\TOOLS\MSVC\14.14.26428\INCLUDE\VCRUNTIME_NEW_DEBUG.H
C:\PROGRAM FILES (X86)\MICROSOFT VISUAL STUDIO\2017\COMMUNITY\VC\TOOLS\MSVC\14.14.26428\INCLUDE\XATOMIC0.H
C:\PROGRAM FILES (X86)\MICROSOFT VISUAL STUDIO\2017\COMMUNITY\VC\TOOLS\MSVC\14.14.26428\INCLUDE\INTRIN0.H
^C:\PERSONAL\STUDY\PROJECTS\STRESSSOLVERMETIS\ADDITIONALMODULES\FMATH\VECTOR3.CPP
C:\PERSONAL\STUDY\PROJECTS\STRESSSOLVERMETIS\ADDITIONALMODULES\FMATH\VECTOR3.H
C:\PERSONAL\STUDY\PROJECTS\STRESSSOLVERMETIS\ADDITIONALMODULES\FMATH\VECTOR3DATA.H
C:\PERSONAL\STUDY\PROJECTS\STRESSSOLVERMETIS\ADDITIONALMODULES\FMATH\STRIDES.H
C:\PERSONAL\STUDY\PROJECTS\STRESSSOLVERMETIS\ADDITIONALMODULES\FMATH\VECTOR3REF.H
C:\PERSONAL\STUDY\PROJECTS\STRESSSOLVERMETIS\ADDITIONALMODULES\MACROS\ADDITIONALMACROS.H
C:\PROGRAM FILES (X86)\MICROSOFT VISUAL STUDIO\2017\COMMUNITY\VC\TOOLS\MSVC\14.14.26428\INCLUDE\CMATH
C:\PROGRAM FILES (X86)\MICROSOFT VISUAL STUDIO\2017\COMMUNITY\VC\TOOLS\MSVC\14.14.26428\INCLUDE\CSTDLIB
C:\PROGRAM FILES (X86)\MICROSOFT VISUAL STUDIO\2017\COMMUNITY\VC\TOOLS\MSVC\14.14.26428\INCLUDE\YVALS.H
C:\PROGRAM FILES (X86)\MICROSOFT VISUAL STUDIO\2017\COMMUNITY\VC\TOOLS\MSVC\14.14.26428\INCLUDE\XKEYCHECK.H
C:\PROGRAM FILES (X86)\MICROSOFT VISUAL STUDIO\2017\COMMUNITY\VC\TOOLS\MSVC\14.14.26428\INCLUDE\CRTDEFS.H
C:\PROGRAM FILES (X86)\MICROSOFT VISUAL STUDIO\2017\COMMUNITY\VC\TOOLS\MSVC\14.14.26428\INCLUDE\VCRUNTIME.H
C:\PROGRAM FILES (X86)\MICROSOFT VISUAL STUDIO\2017\COMMUNITY\VC\TOOLS\MSVC\14.14.26428\INCLUDE\SAL.H
C:\PROGRAM FILES (X86)\MICROSOFT VISUAL STUDIO\2017\COMMUNITY\VC\TOOLS\MSVC\14.14.26428\INCLUDE\CONCURRENCYSAL.H
C:\PROGRAM FILES (X86)\MICROSOFT VISUAL STUDIO\2017\COMMUNITY\VC\TOOLS\MSVC\14.14.26428\INCLUDE\VADEFS.H
C:\PROGRAM FILES (X86)\WINDOWS KITS\10\INCLUDE\10.0.17134.0\UCRT\CORECRT.H
C:\PROGRAM FILES (X86)\MICROSOFT VISUAL STUDIO\2017\COMMUNITY\VC\TOOLS\MSVC\14.14.26428\INCLUDE\USE_ANSI.H
C:\PROGRAM FILES (X86)\WINDOWS KITS\10\INCLUDE\10.0.17134.0\UCRT\STDLIB.H
C:\PROGRAM FILES (X86)\WINDOWS KITS\10\INCLUDE\10.0.17134.0\UCRT\CORECRT_MALLOC.H
C:\PROGRAM FILES (X86)\WINDOWS KITS\10\INCLUDE\10.0.17134.0\UCRT\CORECRT_SEARCH.H
C:\PROGRAM FILES (X86)\WINDOWS KITS\10\INCLUDE\10.0.17134.0\UCRT\STDDEF.H
C:\PROGRAM FILES (X86)\WINDOWS KITS\10\INCLUDE\10.0.17134.0\UCRT\CORECRT_WSTDLIB.H
C:\PROGRAM FILES (X86)\MICROSOFT VISUAL STUDIO\2017\COMMUNITY\VC\TOOLS\MSVC\14.14.26428\INCLUDE\LIMITS.H
C:\PROGRAM FILES (X86)\WINDOWS KITS\10\INCLUDE\10.0.17134.0\UCRT\MATH.H
C:\PROGRAM FILES (X86)\WINDOWS KITS\10\INCLUDE\10.0.17134.0\UCRT\CORECRT_MATH.H
C:\PROGRAM FILES (X86)\MICROSOFT VISUAL STUDIO\2017\COMMUNITY\VC\TOOLS\MSVC\14.14.26428\INCLUDE\XTGMATH.H
C:\PROGRAM FILES (X86)\MICROSOFT VISUAL STUDIO\2017\COMMUNITY\VC\TOOLS\MSVC\14.14.26428\INCLUDE\XTR1COMMON
C:\PERSONAL\STUDY\PROJECTS\STRESSSOLVERMETIS\ADDITIONALMODULES\MACROS\ARGUMENTSCOUNTMACRO.H
C:\PERSONAL\STUDY\PROJECTS\STRESSSOLVERMETIS\ADDITIONALMODULES\MACROS\COMPILERFLAGS.H
C:\PERSONAL\STUDY\PROJECTS\STRESSSOLVERMETIS\ADDITIONALMODULES\MACROS\CONTROLMACROS.H
C:\PERSONAL\STUDY\PROJECTS\STRESSSOLVERMETIS\ADDITIONALMODULES\MACROS\LOGICALMACROS.H
C:\PERSONAL\STUDY\PROJECTS\STRESSSOLVERMETIS\ADDITIONALMODULES\MACROS\STRINGMACROS.H
C:\PROGRAM FILES (X86)\MICROSOFT VISUAL STUDIO\2017\COMMUNITY\VC\TOOLS\MSVC\14.14.26428\INCLUDE\ALGORITHM
C:\PROGRAM FILES (X86)\MICROSOFT VISUAL STUDIO\2017\COMMUNITY\VC\TOOLS\MSVC\14.14.26428\INCLUDE\XMEMORY
C:\PROGRAM FILES (X86)\MICROSOFT VISUAL STUDIO\2017\COMMUNITY\VC\TOOLS\MSVC\14.14.26428\INCLUDE\XMEMORY0
C:\PROGRAM FILES (X86)\MICROSOFT VISUAL STUDIO\2017\COMMUNITY\VC\TOOLS\MSVC\14.14.26428\INCLUDE\CSTDINT
C:\PROGRAM FILES (X86)\MICROSOFT VISUAL STUDIO\2017\COMMUNITY\VC\TOOLS\MSVC\14.14.26428\INCLUDE\STDINT.H
C:\PROGRAM FILES (X86)\MICROSOFT VISUAL STUDIO\2017\COMMUNITY\VC\TOOLS\MSVC\14.14.26428\INCLUDE\LIMITS
C:\PROGRAM FILES (X86)\MICROSOFT VISUAL STUDIO\2017\COMMUNITY\VC\TOOLS\MSVC\14.14.26428\INCLUDE\YMATH.H
C:\PROGRAM FILES (X86)\MICROSOFT VISUAL STUDIO\2017\COMMUNITY\VC\TOOLS\MSVC\14.14.26428\INCLUDE\CFLOAT
C:\PROGRAM FILES (X86)\WINDOWS KITS\10\INCLUDE\10.0.17134.0\UCRT\FLOAT.H
C:\PROGRAM FILES (X86)\MICROSOFT VISUAL STUDIO\2017\COMMUNITY\VC\TOOLS\MSVC\14.14.26428\INCLUDE\CLIMITS
C:\PROGRAM FILES (X86)\MICROSOFT VISUAL STUDIO\2017\COMMUNITY\VC\TOOLS\MSVC\14.14.26428\INCLUDE\CWCHAR
C:\PROGRAM FILES (X86)\WINDOWS KITS\10\INCLUDE\10.0.17134.0\UCRT\WCHAR.H
C:\PROGRAM FILES (X86)\WINDOWS KITS\10\INCLUDE\10.0.17134.0\UCRT\CORECRT_MEMCPY_S.H
C:\PROGRAM FILES (X86)\WINDOWS KITS\10\INCLUDE\10.0.17134.0\UCRT\ERRNO.H
C:\PROGRAM FILES (X86)\MICROSOFT VISUAL STUDIO\2017\COMMUNITY\VC\TOOLS\MSVC\14.14.26428\INCLUDE\VCRUNTIME_STRING.H
C:\PROGRAM FILES (X86)\WINDOWS KITS\10\INCLUDE\10.0.17134.0\UCRT\CORECRT_WCONIO.H
C:\PROGRAM FILES (X86)\WINDOWS KITS\10\INCLUDE\10.0.17134.0\UCRT\CORECRT_STDIO_CONFIG.H
C:\PROGRAM FILES (X86)\WINDOWS KITS\10\INCLUDE\10.0.17134.0\UCRT\CORECRT_WCTYPE.H
C:\PROGRAM FILES (X86)\WINDOWS KITS\10\INCLUDE\10.0.17134.0\UCRT\CORECRT_WDIRECT.H
C:\PROGRAM FILES (X86)\WINDOWS KITS\10\INCLUDE\10.0.17134.0\UCRT\CORECRT_WIO.H
C:\PROGRAM FILES (X86)\WINDOWS KITS\10\INCLUDE\10.0.17134.0\UCRT\CORECRT_SHARE.H
C:\PROGRAM FILES (X86)\WINDOWS KITS\10\INCLUDE\10.0.17134.0\UCRT\CORECRT_WPROCESS.H
C:\PROGRAM FILES (X86)\WINDOWS KITS\10\INCLUDE\10.0.17134.0\UCRT\CORECRT_WSTDIO.H
C:\PROGRAM FILES (X86)\WINDOWS KITS\10\INCLUDE\10.0.17134.0\UCRT\CORECRT_WSTRING.H
C:\PROGRAM FILES (X86)\WINDOWS KITS\10\INCLUDE\10.0.17134.0\UCRT\CORECRT_WTIME.H
C:\PROGRAM FILES (X86)\WINDOWS KITS\10\INCLUDE\10.0.17134.0\UCRT\SYS\STAT.H
C:\PROGRAM FILES (X86)\WINDOWS KITS\10\INCLUDE\10.0.17134.0\UCRT\SYS\TYPES.H
C:\PROGRAM FILES (X86)\MICROSOFT VISUAL STUDIO\2017\COMMUNITY\VC\TOOLS\MSVC\14.14.26428\INCLUDE\XSTDDEF
C:\PROGRAM FILES (X86)\MICROSOFT VISUAL STUDIO\2017\COMMUNITY\VC\TOOLS\MSVC\14.14.26428\INCLUDE\CSTDDEF
C:\PROGRAM FILES (X86)\MICROSOFT VISUAL STUDIO\2017\COMMUNITY\VC\TOOLS\MSVC\14.14.26428\INCLUDE\INITIALIZER_LIST
C:\PROGRAM FILES (X86)\MICROSOFT VISUAL STUDIO\2017\COMMUNITY\VC\TOOLS\MSVC\14.14.26428\INCLUDE\NEW
C:\PROGRAM FILES (X86)\MICROSOFT VISUAL STUDIO\2017\COMMUNITY\VC\TOOLS\MSVC\14.14.26428\INCLUDE\EXCEPTION
C:\PROGRAM FILES (X86)\MICROSOFT VISUAL STUDIO\2017\COMMUNITY\VC\TOOLS\MSVC\14.14.26428\INCLUDE\TYPE_TRAITS
C:\PROGRAM FILES (X86)\WINDOWS KITS\10\INCLUDE\10.0.17134.0\UCRT\MALLOC.H
C:\PROGRAM FILES (X86)\MICROSOFT VISUAL STUDIO\2017\COMMUNITY\VC\TOOLS\MSVC\14.14.26428\INCLUDE\VCRUNTIME_EXCEPTION.H
C:\PROGRAM FILES (X86)\MICROSOFT VISUAL STUDIO\2017\COMMUNITY\VC\TOOLS\MSVC\14.14.26428\INCLUDE\EH.H
C:\PROGRAM FILES (X86)\WINDOWS KITS\10\INCLUDE\10.0.17134.0\UCRT\CORECRT_TERMINATE.H
C:\PROGRAM FILES (X86)\MICROSOFT VISUAL STUDIO\2017\COMMUNITY\VC\TOOLS\MSVC\14.14.26428\INCLUDE\VCRUNTIME_NEW.H
C:\PROGRAM FILES (X86)\MICROSOFT VISUAL STUDIO\2017\COMMUNITY\VC\TOOLS\MSVC\14.14.26428\INCLUDE\XUTILITY
C:\PROGRAM FILES (X86)\MICROSOFT VISUAL STUDIO\2017\COMMUNITY\VC\TOOLS\MSVC\14.14.26428\INCLUDE\UTILITY
C:\PROGRAM FILES (X86)\MICROSOFT VISUAL STUDIO\2017\COMMUNITY\VC\TOOLS\MSVC\14.14.26428\INCLUDE\IOSFWD
C:\PROGRAM FILES (X86)\MICROSOFT VISUAL STUDIO\2017\COMMUNITY\VC\TOOLS\MSVC\14.14.26428\INCLUDE\CSTDIO
C:\PROGRAM FILES (X86)\WINDOWS KITS\10\INCLUDE\10.0.17134.0\UCRT\STDIO.H
C:\PROGRAM FILES (X86)\MICROSOFT VISUAL STUDIO\2017\COMMUNITY\VC\TOOLS\MSVC\14.14.26428\INCLUDE\CSTRING
C:\PROGRAM FILES (X86)\WINDOWS KITS\10\INCLUDE\10.0.17134.0\UCRT\STRING.H
C:\PROGRAM FILES (X86)\WINDOWS KITS\10\INCLUDE\10.0.17134.0\UCRT\CORECRT_MEMORY.H
C:\PROGRAM FILES (X86)\WINDOWS KITS\10\INCLUDE\10.0.17134.0\UCRT\CRTDBG.H
C:\PROGRAM FILES (X86)\MICROSOFT VISUAL STUDIO\2017\COMMUNITY\VC\TOOLS\MSVC\14.14.26428\INCLUDE\VCRUNTIME_NEW_DEBUG.H
C:\PROGRAM FILES (X86)\MICROSOFT VISUAL STUDIO\2017\COMMUNITY\VC\TOOLS\MSVC\14.14.26428\INCLUDE\XATOMIC0.H
C:\PROGRAM FILES (X86)\MICROSOFT VISUAL STUDIO\2017\COMMUNITY\VC\TOOLS\MSVC\14.14.26428\INCLUDE\INTRIN0.H
^C:\PERSONAL\STUDY\PROJECTS\STRESSSOLVERMETIS\ADDITIONALMODULES\FMATH\VECTOR3DATA.CPP
C:\PERSONAL\STUDY\PROJECTS\STRESSSOLVERMETIS\ADDITIONALMODULES\FMATH\VECTOR3DATA.H
C:\PERSONAL\STUDY\PROJECTS\STRESSSOLVERMETIS\ADDITIONALMODULES\FMATH\STRIDES.H
C:\PROGRAM FILES (X86)\MICROSOFT VISUAL STUDIO\2017\COMMUNITY\VC\TOOLS\MSVC\14.14.26428\INCLUDE\ALGORITHM
C:\PROGRAM FILES (X86)\MICROSOFT VISUAL STUDIO\2017\COMMUNITY\VC\TOOLS\MSVC\14.14.26428\INCLUDE\XMEMORY
C:\PROGRAM FILES (X86)\MICROSOFT VISUAL STUDIO\2017\COMMUNITY\VC\TOOLS\MSVC\14.14.26428\INCLUDE\XMEMORY0
C:\PROGRAM FILES (X86)\MICROSOFT VISUAL STUDIO\2017\COMMUNITY\VC\TOOLS\MSVC\14.14.26428\INCLUDE\CSTDINT
C:\PROGRAM FILES (X86)\MICROSOFT VISUAL STUDIO\2017\COMMUNITY\VC\TOOLS\MSVC\14.14.26428\INCLUDE\YVALS.H
C:\PROGRAM FILES (X86)\MICROSOFT VISUAL STUDIO\2017\COMMUNITY\VC\TOOLS\MSVC\14.14.26428\INCLUDE\XKEYCHECK.H
C:\PROGRAM FILES (X86)\MICROSOFT VISUAL STUDIO\2017\COMMUNITY\VC\TOOLS\MSVC\14.14.26428\INCLUDE\CRTDEFS.H
C:\PROGRAM FILES (X86)\MICROSOFT VISUAL STUDIO\2017\COMMUNITY\VC\TOOLS\MSVC\14.14.26428\INCLUDE\VCRUNTIME.H
C:\PROGRAM FILES (X86)\MICROSOFT VISUAL STUDIO\2017\COMMUNITY\VC\TOOLS\MSVC\14.14.26428\INCLUDE\SAL.H
C:\PROGRAM FILES (X86)\MICROSOFT VISUAL STUDIO\2017\COMMUNITY\VC\TOOLS\MSVC\14.14.26428\INCLUDE\CONCURRENCYSAL.H
C:\PROGRAM FILES (X86)\MICROSOFT VISUAL STUDIO\2017\COMMUNITY\VC\TOOLS\MSVC\14.14.26428\INCLUDE\VADEFS.H
C:\PROGRAM FILES (X86)\WINDOWS KITS\10\INCLUDE\10.0.17134.0\UCRT\CORECRT.H
C:\PROGRAM FILES (X86)\MICROSOFT VISUAL STUDIO\2017\COMMUNITY\VC\TOOLS\MSVC\14.14.26428\INCLUDE\USE_ANSI.H
C:\PROGRAM FILES (X86)\MICROSOFT VISUAL STUDIO\2017\COMMUNITY\VC\TOOLS\MSVC\14.14.26428\INCLUDE\STDINT.H
C:\PROGRAM FILES (X86)\MICROSOFT VISUAL STUDIO\2017\COMMUNITY\VC\TOOLS\MSVC\14.14.26428\INCLUDE\CSTDLIB
C:\PROGRAM FILES (X86)\WINDOWS KITS\10\INCLUDE\10.0.17134.0\UCRT\STDLIB.H
C:\PROGRAM FILES (X86)\WINDOWS KITS\10\INCLUDE\10.0.17134.0\UCRT\CORECRT_MALLOC.H
C:\PROGRAM FILES (X86)\WINDOWS KITS\10\INCLUDE\10.0.17134.0\UCRT\CORECRT_SEARCH.H
C:\PROGRAM FILES (X86)\WINDOWS KITS\10\INCLUDE\10.0.17134.0\UCRT\STDDEF.H
C:\PROGRAM FILES (X86)\WINDOWS KITS\10\INCLUDE\10.0.17134.0\UCRT\CORECRT_WSTDLIB.H
C:\PROGRAM FILES (X86)\MICROSOFT VISUAL STUDIO\2017\COMMUNITY\VC\TOOLS\MSVC\14.14.26428\INCLUDE\LIMITS.H
C:\PROGRAM FILES (X86)\WINDOWS KITS\10\INCLUDE\10.0.17134.0\UCRT\MATH.H
C:\PROGRAM FILES (X86)\WINDOWS KITS\10\INCLUDE\10.0.17134.0\UCRT\CORECRT_MATH.H
C:\PROGRAM FILES (X86)\MICROSOFT VISUAL STUDIO\2017\COMMUNITY\VC\TOOLS\MSVC\14.14.26428\INCLUDE\LIMITS
C:\PROGRAM FILES (X86)\MICROSOFT VISUAL STUDIO\2017\COMMUNITY\VC\TOOLS\MSVC\14.14.26428\INCLUDE\YMATH.H
C:\PROGRAM FILES (X86)\MICROSOFT VISUAL STUDIO\2017\COMMUNITY\VC\TOOLS\MSVC\14.14.26428\INCLUDE\CFLOAT
C:\PROGRAM FILES (X86)\WINDOWS KITS\10\INCLUDE\10.0.17134.0\UCRT\FLOAT.H
C:\PROGRAM FILES (X86)\MICROSOFT VISUAL STUDIO\2017\COMMUNITY\VC\TOOLS\MSVC\14.14.26428\INCLUDE\CLIMITS
C:\PROGRAM FILES (X86)\MICROSOFT VISUAL STUDIO\2017\COMMUNITY\VC\TOOLS\MSVC\14.14.26428\INCLUDE\CMATH
C:\PROGRAM FILES (X86)\MICROSOFT VISUAL STUDIO\2017\COMMUNITY\VC\TOOLS\MSVC\14.14.26428\INCLUDE\XTGMATH.H
C:\PROGRAM FILES (X86)\MICROSOFT VISUAL STUDIO\2017\COMMUNITY\VC\TOOLS\MSVC\14.14.26428\INCLUDE\XTR1COMMON
C:\PROGRAM FILES (X86)\MICROSOFT VISUAL STUDIO\2017\COMMUNITY\VC\TOOLS\MSVC\14.14.26428\INCLUDE\CWCHAR
C:\PROGRAM FILES (X86)\WINDOWS KITS\10\INCLUDE\10.0.17134.0\UCRT\WCHAR.H
C:\PROGRAM FILES (X86)\WINDOWS KITS\10\INCLUDE\10.0.17134.0\UCRT\CORECRT_MEMCPY_S.H
C:\PROGRAM FILES (X86)\WINDOWS KITS\10\INCLUDE\10.0.17134.0\UCRT\ERRNO.H
C:\PROGRAM FILES (X86)\MICROSOFT VISUAL STUDIO\2017\COMMUNITY\VC\TOOLS\MSVC\14.14.26428\INCLUDE\VCRUNTIME_STRING.H
C:\PROGRAM FILES (X86)\WINDOWS KITS\10\INCLUDE\10.0.17134.0\UCRT\CORECRT_WCONIO.H
C:\PROGRAM FILES (X86)\WINDOWS KITS\10\INCLUDE\10.0.17134.0\UCRT\CORECRT_STDIO_CONFIG.H
C:\PROGRAM FILES (X86)\WINDOWS KITS\10\INCLUDE\10.0.17134.0\UCRT\CORECRT_WCTYPE.H
C:\PROGRAM FILES (X86)\WINDOWS KITS\10\INCLUDE\10.0.17134.0\UCRT\CORECRT_WDIRECT.H
C:\PROGRAM FILES (X86)\WINDOWS KITS\10\INCLUDE\10.0.17134.0\UCRT\CORECRT_WIO.H
C:\PROGRAM FILES (X86)\WINDOWS KITS\10\INCLUDE\10.0.17134.0\UCRT\CORECRT_SHARE.H
C:\PROGRAM FILES (X86)\WINDOWS KITS\10\INCLUDE\10.0.17134.0\UCRT\CORECRT_WPROCESS.H
C:\PROGRAM FILES (X86)\WINDOWS KITS\10\INCLUDE\10.0.17134.0\UCRT\CORECRT_WSTDIO.H
C:\PROGRAM FILES (X86)\WINDOWS KITS\10\INCLUDE\10.0.17134.0\UCRT\CORECRT_WSTRING.H
C:\PROGRAM FILES (X86)\WINDOWS KITS\10\INCLUDE\10.0.17134.0\UCRT\CORECRT_WTIME.H
C:\PROGRAM FILES (X86)\WINDOWS KITS\10\INCLUDE\10.0.17134.0\UCRT\SYS\STAT.H
C:\PROGRAM FILES (X86)\WINDOWS KITS\10\INCLUDE\10.0.17134.0\UCRT\SYS\TYPES.H
C:\PROGRAM FILES (X86)\MICROSOFT VISUAL STUDIO\2017\COMMUNITY\VC\TOOLS\MSVC\14.14.26428\INCLUDE\XSTDDEF
C:\PROGRAM FILES (X86)\MICROSOFT VISUAL STUDIO\2017\COMMUNITY\VC\TOOLS\MSVC\14.14.26428\INCLUDE\CSTDDEF
C:\PROGRAM FILES (X86)\MICROSOFT VISUAL STUDIO\2017\COMMUNITY\VC\TOOLS\MSVC\14.14.26428\INCLUDE\INITIALIZER_LIST
C:\PROGRAM FILES (X86)\MICROSOFT VISUAL STUDIO\2017\COMMUNITY\VC\TOOLS\MSVC\14.14.26428\INCLUDE\NEW
C:\PROGRAM FILES (X86)\MICROSOFT VISUAL STUDIO\2017\COMMUNITY\VC\TOOLS\MSVC\14.14.26428\INCLUDE\EXCEPTION
C:\PROGRAM FILES (X86)\MICROSOFT VISUAL STUDIO\2017\COMMUNITY\VC\TOOLS\MSVC\14.14.26428\INCLUDE\TYPE_TRAITS
C:\PROGRAM FILES (X86)\WINDOWS KITS\10\INCLUDE\10.0.17134.0\UCRT\MALLOC.H
C:\PROGRAM FILES (X86)\MICROSOFT VISUAL STUDIO\2017\COMMUNITY\VC\TOOLS\MSVC\14.14.26428\INCLUDE\VCRUNTIME_EXCEPTION.H
C:\PROGRAM FILES (X86)\MICROSOFT VISUAL STUDIO\2017\COMMUNITY\VC\TOOLS\MSVC\14.14.26428\INCLUDE\EH.H
C:\PROGRAM FILES (X86)\WINDOWS KITS\10\INCLUDE\10.0.17134.0\UCRT\CORECRT_TERMINATE.H
C:\PROGRAM FILES (X86)\MICROSOFT VISUAL STUDIO\2017\COMMUNITY\VC\TOOLS\MSVC\14.14.26428\INCLUDE\VCRUNTIME_NEW.H
C:\PROGRAM FILES (X86)\MICROSOFT VISUAL STUDIO\2017\COMMUNITY\VC\TOOLS\MSVC\14.14.26428\INCLUDE\XUTILITY
C:\PROGRAM FILES (X86)\MICROSOFT VISUAL STUDIO\2017\COMMUNITY\VC\TOOLS\MSVC\14.14.26428\INCLUDE\UTILITY
C:\PROGRAM FILES (X86)\MICROSOFT VISUAL STUDIO\2017\COMMUNITY\VC\TOOLS\MSVC\14.14.26428\INCLUDE\IOSFWD
C:\PROGRAM FILES (X86)\MICROSOFT VISUAL STUDIO\2017\COMMUNITY\VC\TOOLS\MSVC\14.14.26428\INCLUDE\CSTDIO
C:\PROGRAM FILES (X86)\WINDOWS KITS\10\INCLUDE\10.0.17134.0\UCRT\STDIO.H
C:\PROGRAM FILES (X86)\MICROSOFT VISUAL STUDIO\2017\COMMUNITY\VC\TOOLS\MSVC\14.14.26428\INCLUDE\CSTRING
C:\PROGRAM FILES (X86)\WINDOWS KITS\10\INCLUDE\10.0.17134.0\UCRT\STRING.H
C:\PROGRAM FILES (X86)\WINDOWS KITS\10\INCLUDE\10.0.17134.0\UCRT\CORECRT_MEMORY.H
C:\PROGRAM FILES (X86)\WINDOWS KITS\10\INCLUDE\10.0.17134.0\UCRT\CRTDBG.H
C:\PROGRAM FILES (X86)\MICROSOFT VISUAL STUDIO\2017\COMMUNITY\VC\TOOLS\MSVC\14.14.26428\INCLUDE\VCRUNTIME_NEW_DEBUG.H
C:\PROGRAM FILES (X86)\MICROSOFT VISUAL STUDIO\2017\COMMUNITY\VC\TOOLS\MSVC\14.14.26428\INCLUDE\XATOMIC0.H
C:\PROGRAM FILES (X86)\MICROSOFT VISUAL STUDIO\2017\COMMUNITY\VC\TOOLS\MSVC\14.14.26428\INCLUDE\INTRIN0.H
^C:\PERSONAL\STUDY\PROJECTS\STRESSSOLVERMETIS\ADDITIONALMODULES\FMATH\VECTOR3REF.CPP
C:\PERSONAL\STUDY\PROJECTS\STRESSSOLVERMETIS\ADDITIONALMODULES\FMATH\VECTOR3REF.H
